verilog isim_temp "../REG/SUB32.v"
verilog isim_temp "../REG/REG32.v"
verilog isim_temp "../REG/COMPLT32.v"
verilog isim_temp "../REG/ADD32.v"
verilog isim_temp "SHR32.v"
verilog isim_temp "SHL32.v"
verilog isim_temp "MUX2x132.v"
verilog isim_temp "COMPEQ32.v"
verilog isim_temp "../REG/COMPGT32.v"
verilog isim_temp "circuit2_Int32.v"
verilog isim_temp "circuit2_Tesbench.v"
verilog isim_temp "C:/Xilinx/14.7/ISE_DS/ISE//verilog/src/glbl.v"
