verilog work "../REG/SUB16.v"
verilog work "../REG/REG16.v"
verilog work "../REG/MUL16.v"
verilog work "../REG/COMPLT8.v"
verilog work "../REG/ADD8.v"
verilog work "MUX2x18.v"
verilog work "circuit1_Int8.v"
