<<<<<<< HEAD
verilog isim_temp "../REG/REG8.v"
verilog isim_temp "../REG/REG64.v"
verilog isim_temp "../REG/REG32.v"
verilog isim_temp "../REG/REG16.v"
verilog isim_temp "../REG/REG_Testbench.v"
=======
verilog isim_temp "REG8.v"
verilog isim_temp "REG64.v"
verilog isim_temp "REG32.v"
verilog isim_temp "REG16.v"
verilog isim_temp "REG_Testbench.v"
>>>>>>> cb79201d7319ce9549ea7f3bec40d38e9a5cca47
verilog isim_temp "C:/Xilinx/14.7/ISE_DS/ISE//verilog/src/glbl.v"
